simulation/qsim/Four_bit_binary_to_2_digit_7_seg.msim.vcd
$comment
	File created using the following command:
		vcd file Four_bit_binary_to_2_digit_7_seg.msim.vcd -direction
$end
$date
	Tue Oct 11 22:03:02 2022
$end
$version
	ModelSim Version 2020.1
$end
$timescale
	1ps
$end

$scope module four_bit_binary_to_2_digit_7_seg_vhd_vec_tst $end
$var wire 1 ! A [4] $end
$var wire 1 " A [3] $end
$var wire 1 # A [2] $end
$var wire 1 $ A [1] $end
$var wire 1 % A [0] $end
$var wire 1 & B [4] $end
$var wire 1 ' B [3] $end
$var wire 1 ( B [2] $end
$var wire 1 ) B [1] $end
$var wire 1 * B [0] $end
$var wire 1 + C $end
$var wire 1 , clock $end
$var wire 1 - ctrl_M $end
$var wire 1 . reset $end
$var wire 1 / s [4] $end
$var wire 1 0 s [3] $end
$var wire 1 1 s [2] $end
$var wire 1 2 s [1] $end
$var wire 1 3 s [0] $end
$var wire 1 4 seven_seg_digit_1 [6] $end
$var wire 1 5 seven_seg_digit_1 [5] $end
$var wire 1 6 seven_seg_digit_1 [4] $end
$var wire 1 7 seven_seg_digit_1 [3] $end
$var wire 1 8 seven_seg_digit_1 [2] $end
$var wire 1 9 seven_seg_digit_1 [1] $end
$var wire 1 : seven_seg_digit_1 [0] $end
$var wire 1 ; seven_seg_digit_2 [6] $end
$var wire 1 < seven_seg_digit_2 [5] $end
$var wire 1 = seven_seg_digit_2 [4] $end
$var wire 1 > seven_seg_digit_2 [3] $end
$var wire 1 ? seven_seg_digit_2 [2] $end
$var wire 1 @ seven_seg_digit_2 [1] $end
$var wire 1 A seven_seg_digit_2 [0] $end
$var wire 1 B V $end

$scope module i1 $end
$var wire 1 C gnd $end
$var wire 1 D vcc $end
$var wire 1 E unknown $end
$var wire 1 F devoe $end
$var wire 1 G devclrn $end
$var wire 1 H devpor $end
$var wire 1 I ww_devoe $end
$var wire 1 J ww_devclrn $end
$var wire 1 K ww_devpor $end
$var wire 1 L ww_clock $end
$var wire 1 M ww_reset $end
$var wire 1 N ww_A [4] $end
$var wire 1 O ww_A [3] $end
$var wire 1 P ww_A [2] $end
$var wire 1 Q ww_A [1] $end
$var wire 1 R ww_A [0] $end
$var wire 1 S ww_B [4] $end
$var wire 1 T ww_B [3] $end
$var wire 1 U ww_B [2] $end
$var wire 1 V ww_B [1] $end
$var wire 1 W ww_B [0] $end
$var wire 1 X ww_ctrl_M $end
$var wire 1 Y ww_s [4] $end
$var wire 1 Z ww_s [3] $end
$var wire 1 [ ww_s [2] $end
$var wire 1 \ ww_s [1] $end
$var wire 1 ] ww_s [0] $end
$var wire 1 ^ ww_V $end
$var wire 1 _ ww_C $end
$var wire 1 ` ww_seven_seg_digit_1 [6] $end
$var wire 1 a ww_seven_seg_digit_1 [5] $end
$var wire 1 b ww_seven_seg_digit_1 [4] $end
$var wire 1 c ww_seven_seg_digit_1 [3] $end
$var wire 1 d ww_seven_seg_digit_1 [2] $end
$var wire 1 e ww_seven_seg_digit_1 [1] $end
$var wire 1 f ww_seven_seg_digit_1 [0] $end
$var wire 1 g ww_seven_seg_digit_2 [6] $end
$var wire 1 h ww_seven_seg_digit_2 [5] $end
$var wire 1 i ww_seven_seg_digit_2 [4] $end
$var wire 1 j ww_seven_seg_digit_2 [3] $end
$var wire 1 k ww_seven_seg_digit_2 [2] $end
$var wire 1 l ww_seven_seg_digit_2 [1] $end
$var wire 1 m ww_seven_seg_digit_2 [0] $end
$var wire 1 n \s[0]~output_o\ $end
$var wire 1 o \s[1]~output_o\ $end
$var wire 1 p \s[2]~output_o\ $end
$var wire 1 q \s[3]~output_o\ $end
$var wire 1 r \s[4]~output_o\ $end
$var wire 1 s \V~output_o\ $end
$var wire 1 t \C~output_o\ $end
$var wire 1 u \seven_seg_digit_1[0]~output_o\ $end
$var wire 1 v \seven_seg_digit_1[1]~output_o\ $end
$var wire 1 w \seven_seg_digit_1[2]~output_o\ $end
$var wire 1 x \seven_seg_digit_1[3]~output_o\ $end
$var wire 1 y \seven_seg_digit_1[4]~output_o\ $end
$var wire 1 z \seven_seg_digit_1[5]~output_o\ $end
$var wire 1 { \seven_seg_digit_1[6]~output_o\ $end
$var wire 1 | \seven_seg_digit_2[0]~output_o\ $end
$var wire 1 } \seven_seg_digit_2[1]~output_o\ $end
$var wire 1 ~ \seven_seg_digit_2[2]~output_o\ $end
$var wire 1 !! \seven_seg_digit_2[3]~output_o\ $end
$var wire 1 "! \seven_seg_digit_2[4]~output_o\ $end
$var wire 1 #! \seven_seg_digit_2[5]~output_o\ $end
$var wire 1 $! \seven_seg_digit_2[6]~output_o\ $end
$var wire 1 %! \A[0]~input_o\ $end
$var wire 1 &! \B[0]~input_o\ $end
$var wire 1 '! \addsub|sum1|sum~0_combout\ $end
$var wire 1 (! \A[1]~input_o\ $end
$var wire 1 )! \B[1]~input_o\ $end
$var wire 1 *! \ctrl_M~input_o\ $end
$var wire 1 +! \addsub|sum2|sum~combout\ $end
$var wire 1 ,! \addsub|sum2|C_out~combout\ $end
$var wire 1 -! \A[2]~input_o\ $end
$var wire 1 .! \B[2]~input_o\ $end
$var wire 1 /! \addsub|sum3|sum~0_combout\ $end
$var wire 1 0! \addsub|sum3|sum~combout\ $end
$var wire 1 1! \addsub|comb~0_combout\ $end
$var wire 1 2! \A[3]~input_o\ $end
$var wire 1 3! \B[3]~input_o\ $end
$var wire 1 4! \addsub|sum4|sum~0_combout\ $end
$var wire 1 5! \addsub|sum4|sum~combout\ $end
$var wire 1 6! \addsub|comb~1_combout\ $end
$var wire 1 7! \A[4]~input_o\ $end
$var wire 1 8! \B[4]~input_o\ $end
$var wire 1 9! \addsub|sum5|sum~0_combout\ $end
$var wire 1 :! \addsub|sum5|sum~combout\ $end
$var wire 1 ;! \addsub|sum4|C_out~combout\ $end
$var wire 1 <! \addsub|V~combout\ $end
$var wire 1 =! \addsub|sum5|C_out~combout\ $end
$var wire 1 >! \clock~input_o\ $end
$var wire 1 ?! \addsub|sum3|C_out~combout\ $end
$var wire 1 @! \addsub|sum1|C_out~0_combout\ $end
$var wire 1 A! \convert_binary|Mod0|auto_generated|divider|divider|op_4~22_cout\ $end
$var wire 1 B! \convert_binary|Mod0|auto_generated|divider|divider|op_4~6\ $end
$var wire 1 C! \convert_binary|Mod0|auto_generated|divider|divider|op_4~10\ $end
$var wire 1 D! \convert_binary|Mod0|auto_generated|divider|divider|op_4~14\ $end
$var wire 1 E! \convert_binary|Mod0|auto_generated|divider|divider|op_4~18\ $end
$var wire 1 F! \convert_binary|Mod0|auto_generated|divider|divider|op_4~1_sumout\ $end
$var wire 1 G! \convert_binary|Mod0|auto_generated|divider|divider|op_4~17_sumout\ $end
$var wire 1 H! \convert_binary|Mod0|auto_generated|divider|divider|op_4~13_sumout\ $end
$var wire 1 I! \convert_binary|Mod0|auto_generated|divider|divider|StageOut[17]~1_combout\ $end
$var wire 1 J! \convert_binary|Mod0|auto_generated|divider|divider|op_4~9_sumout\ $end
$var wire 1 K! \convert_binary|Mod0|auto_generated|divider|divider|op_4~5_sumout\ $end
$var wire 1 L! \convert_binary|Mod0|auto_generated|divider|divider|StageOut[15]~0_combout\ $end
$var wire 1 M! \convert_binary|Mod0|auto_generated|divider|divider|op_5~26_cout\ $end
$var wire 1 N! \convert_binary|Mod0|auto_generated|divider|divider|op_5~6\ $end
$var wire 1 O! \convert_binary|Mod0|auto_generated|divider|divider|op_5~10\ $end
$var wire 1 P! \convert_binary|Mod0|auto_generated|divider|divider|op_5~14\ $end
$var wire 1 Q! \convert_binary|Mod0|auto_generated|divider|divider|op_5~18\ $end
$var wire 1 R! \convert_binary|Mod0|auto_generated|divider|divider|op_5~22_cout\ $end
$var wire 1 S! \convert_binary|Mod0|auto_generated|divider|divider|op_5~1_sumout\ $end
$var wire 1 T! \convert_binary|Mod0|auto_generated|divider|divider|op_5~5_sumout\ $end
$var wire 1 U! \convert_binary|int_data_1[0]~0_combout\ $end
$var wire 1 V! \reset~input_o\ $end
$var wire 1 W! \convert_binary|Mod0|auto_generated|divider|divider|op_5~9_sumout\ $end
$var wire 1 X! \convert_binary|int_data_1[1]~1_combout\ $end
$var wire 1 Y! \convert_binary|Mod0|auto_generated|divider|divider|op_5~13_sumout\ $end
$var wire 1 Z! \convert_binary|int_data_1[2]~2_combout\ $end
$var wire 1 [! \convert_binary|Mod0|auto_generated|divider|divider|op_5~17_sumout\ $end
$var wire 1 \! \convert_binary|int_data_1[3]~3_combout\ $end
$var wire 1 ]! \seven_seg_display_1|Mux6~0_combout\ $end
$var wire 1 ^! \seven_seg_display_1|Mux5~0_combout\ $end
$var wire 1 _! \seven_seg_display_1|Mux4~0_combout\ $end
$var wire 1 `! \seven_seg_display_1|Mux3~0_combout\ $end
$var wire 1 a! \seven_seg_display_1|Mux2~0_combout\ $end
$var wire 1 b! \seven_seg_display_1|Mux1~0_combout\ $end
$var wire 1 c! \seven_seg_display_1|Mux0~0_combout\ $end
$var wire 1 d! \addsub|sum2|C_out~0_combout\ $end
$var wire 1 e! \addsub|sum2|C_out~1_combout\ $end
$var wire 1 f! \convert_binary|Div0|auto_generated|divider|divider|op_4~22_cout\ $end
$var wire 1 g! \convert_binary|Div0|auto_generated|divider|divider|op_4~18\ $end
$var wire 1 h! \convert_binary|Div0|auto_generated|divider|divider|op_4~14\ $end
$var wire 1 i! \convert_binary|Div0|auto_generated|divider|divider|op_4~10\ $end
$var wire 1 j! \convert_binary|Div0|auto_generated|divider|divider|op_4~6\ $end
$var wire 1 k! \convert_binary|Div0|auto_generated|divider|divider|op_4~1_sumout\ $end
$var wire 1 l! \convert_binary|Div0|auto_generated|divider|divider|op_4~5_sumout\ $end
$var wire 1 m! \convert_binary|Div0|auto_generated|divider|divider|op_4~9_sumout\ $end
$var wire 1 n! \convert_binary|Div0|auto_generated|divider|divider|StageOut[17]~0_combout\ $end
$var wire 1 o! \convert_binary|Div0|auto_generated|divider|divider|op_4~13_sumout\ $end
$var wire 1 p! \convert_binary|Div0|auto_generated|divider|divider|op_4~17_sumout\ $end
$var wire 1 q! \convert_binary|Div0|auto_generated|divider|divider|StageOut[15]~1_combout\ $end
$var wire 1 r! \convert_binary|Div0|auto_generated|divider|divider|op_5~26_cout\ $end
$var wire 1 s! \convert_binary|Div0|auto_generated|divider|divider|op_5~22_cout\ $end
$var wire 1 t! \convert_binary|Div0|auto_generated|divider|divider|op_5~18_cout\ $end
$var wire 1 u! \convert_binary|Div0|auto_generated|divider|divider|op_5~14_cout\ $end
$var wire 1 v! \convert_binary|Div0|auto_generated|divider|divider|op_5~10_cout\ $end
$var wire 1 w! \convert_binary|Div0|auto_generated|divider|divider|op_5~6_cout\ $end
$var wire 1 x! \convert_binary|Div0|auto_generated|divider|divider|op_5~1_sumout\ $end
$var wire 1 y! \convert_binary|Mod1|auto_generated|divider|divider|op_5~6\ $end
$var wire 1 z! \convert_binary|Mod1|auto_generated|divider|divider|op_5~7\ $end
$var wire 1 {! \convert_binary|Mod1|auto_generated|divider|divider|op_5~10\ $end
$var wire 1 |! \convert_binary|Mod1|auto_generated|divider|divider|op_5~11\ $end
$var wire 1 }! \convert_binary|Mod1|auto_generated|divider|divider|op_5~14\ $end
$var wire 1 ~! \convert_binary|Mod1|auto_generated|divider|divider|op_5~15\ $end
$var wire 1 !" \convert_binary|Mod1|auto_generated|divider|divider|op_5~18\ $end
$var wire 1 "" \convert_binary|Mod1|auto_generated|divider|divider|op_5~19\ $end
$var wire 1 #" \convert_binary|Mod1|auto_generated|divider|divider|op_5~1_sumout\ $end
$var wire 1 $" \convert_binary|Mod1|auto_generated|divider|divider|op_5~5_sumout\ $end
$var wire 1 %" \convert_binary|int_data_2[0]~0_combout\ $end
$var wire 1 &" \convert_binary|Mod1|auto_generated|divider|divider|op_5~9_sumout\ $end
$var wire 1 '" \convert_binary|int_data_2[1]~1_combout\ $end
$var wire 1 (" \convert_binary|Mod1|auto_generated|divider|divider|op_5~13_sumout\ $end
$var wire 1 )" \convert_binary|int_data_2[2]~2_combout\ $end
$var wire 1 *" \convert_binary|Mod1|auto_generated|divider|divider|op_5~17_sumout\ $end
$var wire 1 +" \convert_binary|int_data_2[3]~3_combout\ $end
$var wire 1 ," \seven_seg_display_2|Mux6~0_combout\ $end
$var wire 1 -" \seven_seg_display_2|Mux5~0_combout\ $end
$var wire 1 ." \seven_seg_display_2|Mux4~0_combout\ $end
$var wire 1 /" \seven_seg_display_2|Mux3~0_combout\ $end
$var wire 1 0" \seven_seg_display_2|Mux2~0_combout\ $end
$var wire 1 1" \seven_seg_display_2|Mux1~0_combout\ $end
$var wire 1 2" \seven_seg_display_2|Mux0~0_combout\ $end
$var wire 1 3" \convert_binary|int_data_2\ [31] $end
$var wire 1 4" \convert_binary|int_data_2\ [30] $end
$var wire 1 5" \convert_binary|int_data_2\ [29] $end
$var wire 1 6" \convert_binary|int_data_2\ [28] $end
$var wire 1 7" \convert_binary|int_data_2\ [27] $end
$var wire 1 8" \convert_binary|int_data_2\ [26] $end
$var wire 1 9" \convert_binary|int_data_2\ [25] $end
$var wire 1 :" \convert_binary|int_data_2\ [24] $end
$var wire 1 ;" \convert_binary|int_data_2\ [23] $end
$var wire 1 <" \convert_binary|int_data_2\ [22] $end
$var wire 1 =" \convert_binary|int_data_2\ [21] $end
$var wire 1 >" \convert_binary|int_data_2\ [20] $end
$var wire 1 ?" \convert_binary|int_data_2\ [19] $end
$var wire 1 @" \convert_binary|int_data_2\ [18] $end
$var wire 1 A" \convert_binary|int_data_2\ [17] $end
$var wire 1 B" \convert_binary|int_data_2\ [16] $end
$var wire 1 C" \convert_binary|int_data_2\ [15] $end
$var wire 1 D" \convert_binary|int_data_2\ [14] $end
$var wire 1 E" \convert_binary|int_data_2\ [13] $end
$var wire 1 F" \convert_binary|int_data_2\ [12] $end
$var wire 1 G" \convert_binary|int_data_2\ [11] $end
$var wire 1 H" \convert_binary|int_data_2\ [10] $end
$var wire 1 I" \convert_binary|int_data_2\ [9] $end
$var wire 1 J" \convert_binary|int_data_2\ [8] $end
$var wire 1 K" \convert_binary|int_data_2\ [7] $end
$var wire 1 L" \convert_binary|int_data_2\ [6] $end
$var wire 1 M" \convert_binary|int_data_2\ [5] $end
$var wire 1 N" \convert_binary|int_data_2\ [4] $end
$var wire 1 O" \convert_binary|int_data_2\ [3] $end
$var wire 1 P" \convert_binary|int_data_2\ [2] $end
$var wire 1 Q" \convert_binary|int_data_2\ [1] $end
$var wire 1 R" \convert_binary|int_data_2\ [0] $end
$var wire 1 S" \seven_seg_display_1|seven_seg\ [6] $end
$var wire 1 T" \seven_seg_display_1|seven_seg\ [5] $end
$var wire 1 U" \seven_seg_display_1|seven_seg\ [4] $end
$var wire 1 V" \seven_seg_display_1|seven_seg\ [3] $end
$var wire 1 W" \seven_seg_display_1|seven_seg\ [2] $end
$var wire 1 X" \seven_seg_display_1|seven_seg\ [1] $end
$var wire 1 Y" \seven_seg_display_1|seven_seg\ [0] $end
$var wire 1 Z" \seven_seg_display_2|seven_seg\ [6] $end
$var wire 1 [" \seven_seg_display_2|seven_seg\ [5] $end
$var wire 1 \" \seven_seg_display_2|seven_seg\ [4] $end
$var wire 1 ]" \seven_seg_display_2|seven_seg\ [3] $end
$var wire 1 ^" \seven_seg_display_2|seven_seg\ [2] $end
$var wire 1 _" \seven_seg_display_2|seven_seg\ [1] $end
$var wire 1 `" \seven_seg_display_2|seven_seg\ [0] $end
$var wire 1 a" \convert_binary|int_data_1\ [31] $end
$var wire 1 b" \convert_binary|int_data_1\ [30] $end
$var wire 1 c" \convert_binary|int_data_1\ [29] $end
$var wire 1 d" \convert_binary|int_data_1\ [28] $end
$var wire 1 e" \convert_binary|int_data_1\ [27] $end
$var wire 1 f" \convert_binary|int_data_1\ [26] $end
$var wire 1 g" \convert_binary|int_data_1\ [25] $end
$var wire 1 h" \convert_binary|int_data_1\ [24] $end
$var wire 1 i" \convert_binary|int_data_1\ [23] $end
$var wire 1 j" \convert_binary|int_data_1\ [22] $end
$var wire 1 k" \convert_binary|int_data_1\ [21] $end
$var wire 1 l" \convert_binary|int_data_1\ [20] $end
$var wire 1 m" \convert_binary|int_data_1\ [19] $end
$var wire 1 n" \convert_binary|int_data_1\ [18] $end
$var wire 1 o" \convert_binary|int_data_1\ [17] $end
$var wire 1 p" \convert_binary|int_data_1\ [16] $end
$var wire 1 q" \convert_binary|int_data_1\ [15] $end
$var wire 1 r" \convert_binary|int_data_1\ [14] $end
$var wire 1 s" \convert_binary|int_data_1\ [13] $end
$var wire 1 t" \convert_binary|int_data_1\ [12] $end
$var wire 1 u" \convert_binary|int_data_1\ [11] $end
$var wire 1 v" \convert_binary|int_data_1\ [10] $end
$var wire 1 w" \convert_binary|int_data_1\ [9] $end
$var wire 1 x" \convert_binary|int_data_1\ [8] $end
$var wire 1 y" \convert_binary|int_data_1\ [7] $end
$var wire 1 z" \convert_binary|int_data_1\ [6] $end
$var wire 1 {" \convert_binary|int_data_1\ [5] $end
$var wire 1 |" \convert_binary|int_data_1\ [4] $end
$var wire 1 }" \convert_binary|int_data_1\ [3] $end
$var wire 1 ~" \convert_binary|int_data_1\ [2] $end
$var wire 1 !# \convert_binary|int_data_1\ [1] $end
$var wire 1 "# \convert_binary|int_data_1\ [0] $end
$var wire 1 ## \addsub|sum3|ALT_INV_sum~combout\ $end
$var wire 1 $# \addsub|sum3|ALT_INV_sum~0_combout\ $end
$var wire 1 %# \addsub|sum2|ALT_INV_C_out~combout\ $end
$var wire 1 &# \addsub|sum2|ALT_INV_sum~combout\ $end
$var wire 1 '# \addsub|sum1|ALT_INV_sum~0_combout\ $end
$var wire 1 (# \convert_binary|Div0|auto_generated|divider|divider|ALT_INV_op_4~17_sumout\ $end
$var wire 1 )# \convert_binary|Div0|auto_generated|divider|divider|ALT_INV_op_4~13_sumout\ $end
$var wire 1 *# \convert_binary|Div0|auto_generated|divider|divider|ALT_INV_op_4~9_sumout\ $end
$var wire 1 +# \convert_binary|Div0|auto_generated|divider|divider|ALT_INV_op_4~5_sumout\ $end
$var wire 1 ,# \convert_binary|Mod0|auto_generated|divider|divider|ALT_INV_op_4~17_sumout\ $end
$var wire 1 -# \convert_binary|Mod1|auto_generated|divider|divider|ALT_INV_op_5~17_sumout\ $end
$var wire 1 .# \convert_binary|Mod1|auto_generated|divider|divider|ALT_INV_op_5~13_sumout\ $end
$var wire 1 /# \convert_binary|Mod1|auto_generated|divider|divider|ALT_INV_op_5~9_sumout\ $end
$var wire 1 0# \convert_binary|Div0|auto_generated|divider|divider|ALT_INV_op_4~1_sumout\ $end
$var wire 1 1# \convert_binary|Mod1|auto_generated|divider|divider|ALT_INV_op_5~5_sumout\ $end
$var wire 1 2# \convert_binary|Mod1|auto_generated|divider|divider|ALT_INV_op_5~1_sumout\ $end
$var wire 1 3# \convert_binary|Div0|auto_generated|divider|divider|ALT_INV_op_5~1_sumout\ $end
$var wire 1 4# \convert_binary|Mod0|auto_generated|divider|divider|ALT_INV_op_5~17_sumout\ $end
$var wire 1 5# \convert_binary|Mod0|auto_generated|divider|divider|ALT_INV_op_4~13_sumout\ $end
$var wire 1 6# \convert_binary|Mod0|auto_generated|divider|divider|ALT_INV_op_5~13_sumout\ $end
$var wire 1 7# \convert_binary|Mod0|auto_generated|divider|divider|ALT_INV_op_4~9_sumout\ $end
$var wire 1 8# \convert_binary|Mod0|auto_generated|divider|divider|ALT_INV_op_5~9_sumout\ $end
$var wire 1 9# \convert_binary|Mod0|auto_generated|divider|divider|ALT_INV_op_4~5_sumout\ $end
$var wire 1 :# \convert_binary|Mod0|auto_generated|divider|divider|ALT_INV_op_4~1_sumout\ $end
$var wire 1 ;# \convert_binary|Mod0|auto_generated|divider|divider|ALT_INV_op_5~5_sumout\ $end
$var wire 1 <# \convert_binary|Mod0|auto_generated|divider|divider|ALT_INV_op_5~1_sumout\ $end
$var wire 1 =# \ALT_INV_B[4]~input_o\ $end
$var wire 1 ># \ALT_INV_A[4]~input_o\ $end
$var wire 1 ?# \ALT_INV_B[3]~input_o\ $end
$var wire 1 @# \ALT_INV_A[3]~input_o\ $end
$var wire 1 A# \ALT_INV_B[2]~input_o\ $end
$var wire 1 B# \ALT_INV_A[2]~input_o\ $end
$var wire 1 C# \ALT_INV_ctrl_M~input_o\ $end
$var wire 1 D# \ALT_INV_B[1]~input_o\ $end
$var wire 1 E# \ALT_INV_A[1]~input_o\ $end
$var wire 1 F# \ALT_INV_B[0]~input_o\ $end
$var wire 1 G# \ALT_INV_A[0]~input_o\ $end
$var wire 1 H# \convert_binary|Div0|auto_generated|divider|divider|ALT_INV_StageOut[15]~1_combout\ $end
$var wire 1 I# \addsub|sum2|ALT_INV_C_out~1_combout\ $end
$var wire 1 J# \addsub|sum2|ALT_INV_C_out~0_combout\ $end
$var wire 1 K# \convert_binary|Div0|auto_generated|divider|divider|ALT_INV_StageOut[17]~0_combout\ $end
$var wire 1 L# \addsub|sum3|ALT_INV_C_out~combout\ $end
$var wire 1 M# \addsub|sum1|ALT_INV_C_out~0_combout\ $end
$var wire 1 N# \convert_binary|Mod0|auto_generated|divider|divider|ALT_INV_StageOut[17]~1_combout\ $end
$var wire 1 O# \convert_binary|Mod0|auto_generated|divider|divider|ALT_INV_StageOut[15]~0_combout\ $end
$var wire 1 P# \convert_binary|ALT_INV_int_data_2\ [3] $end
$var wire 1 Q# \convert_binary|ALT_INV_int_data_2\ [2] $end
$var wire 1 R# \convert_binary|ALT_INV_int_data_2\ [1] $end
$var wire 1 S# \convert_binary|ALT_INV_int_data_2\ [0] $end
$var wire 1 T# \convert_binary|ALT_INV_int_data_1\ [3] $end
$var wire 1 U# \convert_binary|ALT_INV_int_data_1\ [2] $end
$var wire 1 V# \convert_binary|ALT_INV_int_data_1\ [1] $end
$var wire 1 W# \convert_binary|ALT_INV_int_data_1\ [0] $end
$var wire 1 X# \addsub|sum5|ALT_INV_C_out~combout\ $end
$var wire 1 Y# \addsub|sum4|ALT_INV_C_out~combout\ $end
$var wire 1 Z# \addsub|sum5|ALT_INV_sum~0_combout\ $end
$var wire 1 [# \addsub|ALT_INV_comb~1_combout\ $end
$var wire 1 \# \addsub|sum4|ALT_INV_sum~combout\ $end
$var wire 1 ]# \addsub|sum4|ALT_INV_sum~0_combout\ $end
$var wire 1 ^# \addsub|ALT_INV_comb~0_combout\ $end
$upscope $end
$upscope $end
$enddefinitions $end
#0
$dumpvars
0+
0,
0-
1.
1B
0C
1D
xE
1F
1G
1H
1I
1J
1K
0L
1M
0X
1^
0_
0n
1o
0p
1q
1r
1s
0t
0u
0v
0w
0x
0y
0z
0{
0|
0}
0~
0!!
0"!
0#!
0$!
1%!
1&!
0'!
0(!
0)!
0*!
1+!
0,!
1-!
1.!
0/!
00!
11!
12!
13!
04!
15!
16!
07!
08!
09!
1:!
1;!
1<!
0=!
0>!
1?!
1@!
1A!
1B!
0C!
1D!
1E!
0F!
0G!
0H!
0I!
1J!
1K!
1L!
1M!
1N!
1O!
1P!
0Q!
0R!
1S!
0T!
0U!
1V!
0W!
1X!
1Y!
1Z!
1[!
0\!
0]!
0^!
0_!
0`!
0a!
0b!
1c!
0d!
0e!
1f!
1g!
0h!
1i!
1j!
0k!
0l!
0m!
0n!
1o!
1p!
1q!
1r!
1s!
1t!
1u!
0v!
0w!
1x!
0y!
1z!
1{!
0|!
1}!
0~!
0!"
0""
1#"
0$"
0%"
0&"
1'"
0("
0)"
1*"
0+"
0,"
0-"
0."
0/"
00"
01"
12"
1##
1$#
1%#
0&#
1'#
0(#
0)#
1*#
1+#
1,#
0-#
1.#
1/#
10#
11#
02#
03#
04#
15#
06#
07#
18#
09#
1:#
1;#
0<#
1=#
1>#
0?#
0@#
0A#
0B#
1C#
1D#
1E#
0F#
0G#
0H#
1I#
1J#
1K#
0L#
0M#
1N#
0O#
1X#
0Y#
1Z#
0[#
0\#
1]#
0^#
0!
1"
1#
0$
1%
0&
1'
1(
0)
1*
1/
10
01
12
03
0N
1O
1P
0Q
1R
0S
1T
1U
0V
1W
1Y
1Z
0[
1\
0]
0`
0a
0b
0c
0d
0e
0f
0g
0h
0i
0j
0k
0l
0m
x3"
x4"
x5"
x6"
x7"
x8"
x9"
x:"
x;"
x<"
x="
x>"
x?"
x@"
xA"
xB"
xC"
xD"
xE"
xF"
xG"
xH"
xI"
xJ"
xK"
xL"
xM"
xN"
0O"
0P"
0Q"
0R"
0S"
0T"
0U"
0V"
0W"
0X"
0Y"
0Z"
0["
0\"
0]"
0^"
0_"
0`"
xa"
xb"
xc"
xd"
xe"
xf"
xg"
xh"
xi"
xj"
xk"
xl"
xm"
xn"
xo"
xp"
xq"
xr"
xs"
xt"
xu"
xv"
xw"
xx"
xy"
xz"
x{"
x|"
0}"
0~"
0!#
0"#
1P#
1Q#
1R#
1S#
1T#
1U#
1V#
1W#
04
05
06
07
08
09
0:
0;
0<
0=
0>
0?
0@
0A
$end
#5000
1,
1L
1>!
1!#
1~"
1S"
1Q"
1Z"
0R#
0U#
0V#
1^!
0c!
1."
11"
02"
1$!
1{
1g
1`
1;
14
#10000
0,
0L
0>!
#15000
1,
1L
1>!
1X"
0S"
1^"
1["
0Z"
0$!
1#!
1~
0{
1v
0g
1h
1k
0`
1e
1?
1<
0;
19
04
#20000
0,
0L
0>!
#25000
1,
1L
1>!
#30000
0,
0L
0>!
#35000
1,
1L
1>!
#40000
0,
0L
0>!
#45000
1,
1L
1>!
#50000
0,
0L
0>!
#55000
1,
1L
1>!
#60000
0,
1$
0%
1)
0*
0L
0R
1Q
0W
1V
1)!
0&!
1(!
0%!
0>!
1G#
0E#
1F#
0D#
1d!
0+!
1,!
0@!
1M#
0%#
1&#
0J#
0o!
1h!
10!
0J!
1C!
0K!
0p!
1(#
19#
17#
0##
1)#
0o
1H!
1m!
0Y!
0Z!
0L!
0q!
0*#
05#
0\
1H#
1O#
16#
02
1p
1I!
1n!
1W!
0O!
0X!
0t!
0K#
0N#
1[
08#
11
0[!
1Q!
1\!
1v!
0u!
1Y!
0P!
06#
14#
1[!
0Q!
0v!
1w!
1R!
04#
0S!
0x!
0w!
0R!
13#
1<#
1S!
1x!
1X!
1Z!
1$"
1%"
03#
0<#
01#
0X!
0Z!
0$"
0%"
11#
#65000
1,
1L
1>!
0!#
0~"
1}"
0T#
1U#
1V#
0^!
#70000
0,
0L
0>!
#75000
1,
1L
1>!
0X"
0v
0e
09
#80000
0,
0L
0>!
#85000
1,
1L
1>!
#90000
0,
0L
0>!
#95000
1,
1L
1>!
#100000
0,
0L
0>!
#105000
1,
1L
1>!
#110000
0,
0L
0>!
#115000
1,
1L
1>!
#120000
0,
1%
1*
0L
1R
1W
1&!
1%!
0>!
0G#
0F#
1+!
1@!
0M#
0&#
1K!
1p!
0(#
09#
1o
1L!
1q!
1\
0H#
0O#
12
0W!
1O!
1X!
1t!
18#
1u!
0Y!
1P!
16#
0[!
1Q!
1v!
14#
1w!
1R!
0S!
0x!
13#
1<#
0X!
0\!
1$"
1%"
01#
#125000
1,
1L
1>!
0}"
1R"
0S#
1T#
1c!
0."
10"
#130000
0,
0L
0>!
#135000
1,
1L
1>!
1S"
0^"
1\"
1"!
0~
1{
1i
0k
1`
0?
1=
14
#140000
0,
0L
0>!
#145000
1,
1L
1>!
#150000
0,
0L
0>!
#155000
1,
1L
1>!
#160000
0,
0L
0>!
#165000
1,
1L
1>!
#170000
0,
0L
0>!
#175000
1,
1L
1>!
#180000
0,
0%
0*
0$
0)
1!
0"
0#
1&
0'
0(
0L
0R
0Q
0P
0O
1N
0W
0V
0U
0T
1S
18!
03!
0.!
0)!
0&!
17!
02!
0-!
0(!
0%!
0>!
1G#
1E#
1B#
1@#
0>#
1F#
1D#
1A#
1?#
0=#
06!
01!
0<!
1=!
1o!
0h!
0d!
0+!
0,!
0@!
1M#
1%#
1&#
1J#
0)#
0X#
1^#
1[#
0m!
1G!
0E!
1l!
0j!
1X!
1\!
0%"
1+"
00!
05!
0:!
0;!
0?!
1J!
0C!
0H!
1m!
0i!
0K!
0p!
1*#
1(#
19#
0*#
15#
07#
1L#
1Y#
1\#
1##
0+#
0,#
0o
1t
0s
0n!
0l!
1H!
0D!
1k!
1F!
1<!
1Y!
0I!
1n!
0L!
0q!
0:#
00#
05#
1+#
1K#
0\
1_
0^
0G!
1H#
1O#
0K#
1N#
06#
02
1+
0B
0r
0q
0p
0v!
0n!
1&"
0{!
0Y!
1,#
1[!
0Q!
1v!
1W!
0O!
0t!
16#
0/#
1K#
0Y
0Z
0[
1("
0}!
0w!
08#
04#
01
00
0/
1s
0v!
0u!
1Y!
0P!
1w!
0R!
0.#
1x!
0*"
06#
1^
1S!
0x!
0[!
0w!
1-#
03#
1B
14#
13#
0<#
0$"
1x!
1$"
03#
11#
01#
0$"
11#
#185000
1,
1L
1>!
1!#
1}"
0R"
1O"
0P#
1S#
0T#
0V#
1^!
1_!
0c!
1-"
1."
00"
01"
#190000
0,
0L
0>!
#195000
1,
1L
1>!
1X"
1W"
0S"
1_"
1^"
0\"
0["
0#!
0"!
1~
1}
0{
1w
1v
0h
0i
1k
1l
0`
1d
1e
1@
1?
0=
0<
19
18
04
#200000
0,
0L
0>!
#205000
1,
1L
1>!
#210000
0,
0L
0>!
#215000
1,
1L
1>!
#220000
0,
0L
0>!
#225000
1,
1L
1>!
#230000
0,
0L
0>!
#235000
1,
1L
1>!
#240000
0,
1%
1*
0L
1R
1W
1&!
1%!
0>!
0G#
0F#
1+!
1@!
0M#
0&#
1L!
1q!
1K!
1p!
0(#
09#
0H#
0O#
1o
0W!
1O!
1t!
1\
18#
12
1u!
0Y!
1P!
16#
1[!
04#
#245000
1,
1L
1>!
#250000
0,
0L
0>!
#255000
1,
1L
1>!
