simulation/qsim/Four_bit_binary_to_2_digit_7_seg.msim.vcd
$comment
	File created using the following command:
		vcd file Four_bit_binary_to_2_digit_7_seg.msim.vcd -direction
$end
$date
	Tue Oct 11 20:08:11 2022
$end
$version
	ModelSim Version 2020.1
$end
$timescale
	1ps
$end

$scope module four_bit_binary_to_2_digit_7_seg_vhd_vec_tst $end
$var wire 1 ! A [4] $end
$var wire 1 " A [3] $end
$var wire 1 # A [2] $end
$var wire 1 $ A [1] $end
$var wire 1 % A [0] $end
$var wire 1 & B [4] $end
$var wire 1 ' B [3] $end
$var wire 1 ( B [2] $end
$var wire 1 ) B [1] $end
$var wire 1 * B [0] $end
$var wire 1 + C $end
$var wire 1 , clock $end
$var wire 1 - ctrl_M $end
$var wire 1 . reset $end
$var wire 1 / s [4] $end
$var wire 1 0 s [3] $end
$var wire 1 1 s [2] $end
$var wire 1 2 s [1] $end
$var wire 1 3 s [0] $end
$var wire 1 4 seven_seg_digit_1 [6] $end
$var wire 1 5 seven_seg_digit_1 [5] $end
$var wire 1 6 seven_seg_digit_1 [4] $end
$var wire 1 7 seven_seg_digit_1 [3] $end
$var wire 1 8 seven_seg_digit_1 [2] $end
$var wire 1 9 seven_seg_digit_1 [1] $end
$var wire 1 : seven_seg_digit_1 [0] $end
$var wire 1 ; seven_seg_digit_2 [6] $end
$var wire 1 < seven_seg_digit_2 [5] $end
$var wire 1 = seven_seg_digit_2 [4] $end
$var wire 1 > seven_seg_digit_2 [3] $end
$var wire 1 ? seven_seg_digit_2 [2] $end
$var wire 1 @ seven_seg_digit_2 [1] $end
$var wire 1 A seven_seg_digit_2 [0] $end
$var wire 1 B seven_seg_digit_3 [6] $end
$var wire 1 C seven_seg_digit_3 [5] $end
$var wire 1 D seven_seg_digit_3 [4] $end
$var wire 1 E seven_seg_digit_3 [3] $end
$var wire 1 F seven_seg_digit_3 [2] $end
$var wire 1 G seven_seg_digit_3 [1] $end
$var wire 1 H seven_seg_digit_3 [0] $end
$var wire 1 I V $end

$scope module i1 $end
$var wire 1 J gnd $end
$var wire 1 K vcc $end
$var wire 1 L unknown $end
$var wire 1 M devoe $end
$var wire 1 N devclrn $end
$var wire 1 O devpor $end
$var wire 1 P ww_devoe $end
$var wire 1 Q ww_devclrn $end
$var wire 1 R ww_devpor $end
$var wire 1 S ww_clock $end
$var wire 1 T ww_reset $end
$var wire 1 U ww_A [4] $end
$var wire 1 V ww_A [3] $end
$var wire 1 W ww_A [2] $end
$var wire 1 X ww_A [1] $end
$var wire 1 Y ww_A [0] $end
$var wire 1 Z ww_B [4] $end
$var wire 1 [ ww_B [3] $end
$var wire 1 \ ww_B [2] $end
$var wire 1 ] ww_B [1] $end
$var wire 1 ^ ww_B [0] $end
$var wire 1 _ ww_ctrl_M $end
$var wire 1 ` ww_s [4] $end
$var wire 1 a ww_s [3] $end
$var wire 1 b ww_s [2] $end
$var wire 1 c ww_s [1] $end
$var wire 1 d ww_s [0] $end
$var wire 1 e ww_V $end
$var wire 1 f ww_C $end
$var wire 1 g ww_seven_seg_digit_1 [6] $end
$var wire 1 h ww_seven_seg_digit_1 [5] $end
$var wire 1 i ww_seven_seg_digit_1 [4] $end
$var wire 1 j ww_seven_seg_digit_1 [3] $end
$var wire 1 k ww_seven_seg_digit_1 [2] $end
$var wire 1 l ww_seven_seg_digit_1 [1] $end
$var wire 1 m ww_seven_seg_digit_1 [0] $end
$var wire 1 n ww_seven_seg_digit_2 [6] $end
$var wire 1 o ww_seven_seg_digit_2 [5] $end
$var wire 1 p ww_seven_seg_digit_2 [4] $end
$var wire 1 q ww_seven_seg_digit_2 [3] $end
$var wire 1 r ww_seven_seg_digit_2 [2] $end
$var wire 1 s ww_seven_seg_digit_2 [1] $end
$var wire 1 t ww_seven_seg_digit_2 [0] $end
$var wire 1 u ww_seven_seg_digit_3 [6] $end
$var wire 1 v ww_seven_seg_digit_3 [5] $end
$var wire 1 w ww_seven_seg_digit_3 [4] $end
$var wire 1 x ww_seven_seg_digit_3 [3] $end
$var wire 1 y ww_seven_seg_digit_3 [2] $end
$var wire 1 z ww_seven_seg_digit_3 [1] $end
$var wire 1 { ww_seven_seg_digit_3 [0] $end
$var wire 1 | \s[0]~output_o\ $end
$var wire 1 } \s[1]~output_o\ $end
$var wire 1 ~ \s[2]~output_o\ $end
$var wire 1 !! \s[3]~output_o\ $end
$var wire 1 "! \s[4]~output_o\ $end
$var wire 1 #! \V~output_o\ $end
$var wire 1 $! \C~output_o\ $end
$var wire 1 %! \seven_seg_digit_1[0]~output_o\ $end
$var wire 1 &! \seven_seg_digit_1[1]~output_o\ $end
$var wire 1 '! \seven_seg_digit_1[2]~output_o\ $end
$var wire 1 (! \seven_seg_digit_1[3]~output_o\ $end
$var wire 1 )! \seven_seg_digit_1[4]~output_o\ $end
$var wire 1 *! \seven_seg_digit_1[5]~output_o\ $end
$var wire 1 +! \seven_seg_digit_1[6]~output_o\ $end
$var wire 1 ,! \seven_seg_digit_2[0]~output_o\ $end
$var wire 1 -! \seven_seg_digit_2[1]~output_o\ $end
$var wire 1 .! \seven_seg_digit_2[2]~output_o\ $end
$var wire 1 /! \seven_seg_digit_2[3]~output_o\ $end
$var wire 1 0! \seven_seg_digit_2[4]~output_o\ $end
$var wire 1 1! \seven_seg_digit_2[5]~output_o\ $end
$var wire 1 2! \seven_seg_digit_2[6]~output_o\ $end
$var wire 1 3! \seven_seg_digit_3[0]~output_o\ $end
$var wire 1 4! \seven_seg_digit_3[1]~output_o\ $end
$var wire 1 5! \seven_seg_digit_3[2]~output_o\ $end
$var wire 1 6! \seven_seg_digit_3[3]~output_o\ $end
$var wire 1 7! \seven_seg_digit_3[4]~output_o\ $end
$var wire 1 8! \seven_seg_digit_3[5]~output_o\ $end
$var wire 1 9! \seven_seg_digit_3[6]~output_o\ $end
$var wire 1 :! \A[0]~input_o\ $end
$var wire 1 ;! \B[0]~input_o\ $end
$var wire 1 <! \addsub|sum1|sum~0_combout\ $end
$var wire 1 =! \A[1]~input_o\ $end
$var wire 1 >! \B[1]~input_o\ $end
$var wire 1 ?! \ctrl_M~input_o\ $end
$var wire 1 @! \addsub|sum2|sum~combout\ $end
$var wire 1 A! \addsub|sum2|C_out~combout\ $end
$var wire 1 B! \A[2]~input_o\ $end
$var wire 1 C! \B[2]~input_o\ $end
$var wire 1 D! \addsub|sum3|sum~0_combout\ $end
$var wire 1 E! \addsub|sum3|sum~combout\ $end
$var wire 1 F! \addsub|comb~0_combout\ $end
$var wire 1 G! \A[3]~input_o\ $end
$var wire 1 H! \B[3]~input_o\ $end
$var wire 1 I! \addsub|sum4|sum~0_combout\ $end
$var wire 1 J! \addsub|sum4|sum~combout\ $end
$var wire 1 K! \addsub|comb~1_combout\ $end
$var wire 1 L! \A[4]~input_o\ $end
$var wire 1 M! \B[4]~input_o\ $end
$var wire 1 N! \addsub|sum5|sum~0_combout\ $end
$var wire 1 O! \addsub|sum5|sum~combout\ $end
$var wire 1 P! \addsub|sum4|C_out~combout\ $end
$var wire 1 Q! \addsub|V~combout\ $end
$var wire 1 R! \clock~input_o\ $end
$var wire 1 S! \addsub|sum3|C_out~combout\ $end
$var wire 1 T! \addsub|sum1|C_out~0_combout\ $end
$var wire 1 U! \convert_binary|Mod0|auto_generated|divider|divider|op_4~22_cout\ $end
$var wire 1 V! \convert_binary|Mod0|auto_generated|divider|divider|op_4~6\ $end
$var wire 1 W! \convert_binary|Mod0|auto_generated|divider|divider|op_4~10\ $end
$var wire 1 X! \convert_binary|Mod0|auto_generated|divider|divider|op_4~14\ $end
$var wire 1 Y! \convert_binary|Mod0|auto_generated|divider|divider|op_4~18\ $end
$var wire 1 Z! \convert_binary|Mod0|auto_generated|divider|divider|op_4~1_sumout\ $end
$var wire 1 [! \convert_binary|Mod0|auto_generated|divider|divider|op_4~17_sumout\ $end
$var wire 1 \! \convert_binary|Mod0|auto_generated|divider|divider|op_4~13_sumout\ $end
$var wire 1 ]! \convert_binary|Mod0|auto_generated|divider|divider|StageOut[17]~1_combout\ $end
$var wire 1 ^! \convert_binary|Mod0|auto_generated|divider|divider|op_4~9_sumout\ $end
$var wire 1 _! \convert_binary|Mod0|auto_generated|divider|divider|op_4~5_sumout\ $end
$var wire 1 `! \convert_binary|Mod0|auto_generated|divider|divider|StageOut[15]~0_combout\ $end
$var wire 1 a! \convert_binary|Mod0|auto_generated|divider|divider|op_5~26_cout\ $end
$var wire 1 b! \convert_binary|Mod0|auto_generated|divider|divider|op_5~6\ $end
$var wire 1 c! \convert_binary|Mod0|auto_generated|divider|divider|op_5~10\ $end
$var wire 1 d! \convert_binary|Mod0|auto_generated|divider|divider|op_5~14\ $end
$var wire 1 e! \convert_binary|Mod0|auto_generated|divider|divider|op_5~18\ $end
$var wire 1 f! \convert_binary|Mod0|auto_generated|divider|divider|op_5~22_cout\ $end
$var wire 1 g! \convert_binary|Mod0|auto_generated|divider|divider|op_5~1_sumout\ $end
$var wire 1 h! \convert_binary|Mod0|auto_generated|divider|divider|op_5~5_sumout\ $end
$var wire 1 i! \convert_binary|int_data_1[0]~0_combout\ $end
$var wire 1 j! \reset~input_o\ $end
$var wire 1 k! \convert_binary|Mod0|auto_generated|divider|divider|op_5~9_sumout\ $end
$var wire 1 l! \convert_binary|int_data_1[1]~1_combout\ $end
$var wire 1 m! \convert_binary|Mod0|auto_generated|divider|divider|op_5~13_sumout\ $end
$var wire 1 n! \convert_binary|int_data_1[2]~2_combout\ $end
$var wire 1 o! \convert_binary|Mod0|auto_generated|divider|divider|op_5~17_sumout\ $end
$var wire 1 p! \convert_binary|int_data_1[3]~3_combout\ $end
$var wire 1 q! \seven_seg_display_1|Mux6~0_combout\ $end
$var wire 1 r! \seven_seg_display_1|Mux5~0_combout\ $end
$var wire 1 s! \seven_seg_display_1|Mux4~0_combout\ $end
$var wire 1 t! \seven_seg_display_1|Mux3~0_combout\ $end
$var wire 1 u! \seven_seg_display_1|Mux2~0_combout\ $end
$var wire 1 v! \seven_seg_display_1|Mux1~0_combout\ $end
$var wire 1 w! \seven_seg_display_1|Mux0~0_combout\ $end
$var wire 1 x! \addsub|sum2|C_out~0_combout\ $end
$var wire 1 y! \addsub|sum2|C_out~1_combout\ $end
$var wire 1 z! \convert_binary|Div0|auto_generated|divider|divider|op_4~22_cout\ $end
$var wire 1 {! \convert_binary|Div0|auto_generated|divider|divider|op_4~18\ $end
$var wire 1 |! \convert_binary|Div0|auto_generated|divider|divider|op_4~14\ $end
$var wire 1 }! \convert_binary|Div0|auto_generated|divider|divider|op_4~10\ $end
$var wire 1 ~! \convert_binary|Div0|auto_generated|divider|divider|op_4~6\ $end
$var wire 1 !" \convert_binary|Div0|auto_generated|divider|divider|op_4~1_sumout\ $end
$var wire 1 "" \convert_binary|Div0|auto_generated|divider|divider|op_4~5_sumout\ $end
$var wire 1 #" \convert_binary|Div0|auto_generated|divider|divider|op_4~9_sumout\ $end
$var wire 1 $" \convert_binary|Div0|auto_generated|divider|divider|StageOut[17]~0_combout\ $end
$var wire 1 %" \convert_binary|Div0|auto_generated|divider|divider|op_4~13_sumout\ $end
$var wire 1 &" \convert_binary|Div0|auto_generated|divider|divider|op_4~17_sumout\ $end
$var wire 1 '" \convert_binary|Div0|auto_generated|divider|divider|StageOut[15]~1_combout\ $end
$var wire 1 (" \convert_binary|Div0|auto_generated|divider|divider|op_5~26_cout\ $end
$var wire 1 )" \convert_binary|Div0|auto_generated|divider|divider|op_5~22_cout\ $end
$var wire 1 *" \convert_binary|Div0|auto_generated|divider|divider|op_5~18_cout\ $end
$var wire 1 +" \convert_binary|Div0|auto_generated|divider|divider|op_5~14_cout\ $end
$var wire 1 ," \convert_binary|Div0|auto_generated|divider|divider|op_5~10_cout\ $end
$var wire 1 -" \convert_binary|Div0|auto_generated|divider|divider|op_5~6_cout\ $end
$var wire 1 ." \convert_binary|Div0|auto_generated|divider|divider|op_5~1_sumout\ $end
$var wire 1 /" \convert_binary|Mod1|auto_generated|divider|divider|op_5~6\ $end
$var wire 1 0" \convert_binary|Mod1|auto_generated|divider|divider|op_5~7\ $end
$var wire 1 1" \convert_binary|Mod1|auto_generated|divider|divider|op_5~10\ $end
$var wire 1 2" \convert_binary|Mod1|auto_generated|divider|divider|op_5~11\ $end
$var wire 1 3" \convert_binary|Mod1|auto_generated|divider|divider|op_5~14\ $end
$var wire 1 4" \convert_binary|Mod1|auto_generated|divider|divider|op_5~15\ $end
$var wire 1 5" \convert_binary|Mod1|auto_generated|divider|divider|op_5~18\ $end
$var wire 1 6" \convert_binary|Mod1|auto_generated|divider|divider|op_5~19\ $end
$var wire 1 7" \convert_binary|Mod1|auto_generated|divider|divider|op_5~1_sumout\ $end
$var wire 1 8" \convert_binary|Mod1|auto_generated|divider|divider|op_5~5_sumout\ $end
$var wire 1 9" \convert_binary|int_data_2[0]~0_combout\ $end
$var wire 1 :" \convert_binary|Mod1|auto_generated|divider|divider|op_5~9_sumout\ $end
$var wire 1 ;" \convert_binary|int_data_2[1]~1_combout\ $end
$var wire 1 <" \convert_binary|Mod1|auto_generated|divider|divider|op_5~13_sumout\ $end
$var wire 1 =" \convert_binary|int_data_2[2]~2_combout\ $end
$var wire 1 >" \convert_binary|Mod1|auto_generated|divider|divider|op_5~17_sumout\ $end
$var wire 1 ?" \convert_binary|int_data_2[3]~3_combout\ $end
$var wire 1 @" \seven_seg_display_2|Mux6~0_combout\ $end
$var wire 1 A" \seven_seg_display_2|Mux5~0_combout\ $end
$var wire 1 B" \seven_seg_display_2|Mux4~0_combout\ $end
$var wire 1 C" \seven_seg_display_2|Mux3~0_combout\ $end
$var wire 1 D" \seven_seg_display_2|Mux2~0_combout\ $end
$var wire 1 E" \seven_seg_display_2|Mux1~0_combout\ $end
$var wire 1 F" \seven_seg_display_2|Mux0~0_combout\ $end
$var wire 1 G" \seven_seg_display_3|seven_seg[6]~0_combout\ $end
$var wire 1 H" \convert_binary|int_data_2\ [31] $end
$var wire 1 I" \convert_binary|int_data_2\ [30] $end
$var wire 1 J" \convert_binary|int_data_2\ [29] $end
$var wire 1 K" \convert_binary|int_data_2\ [28] $end
$var wire 1 L" \convert_binary|int_data_2\ [27] $end
$var wire 1 M" \convert_binary|int_data_2\ [26] $end
$var wire 1 N" \convert_binary|int_data_2\ [25] $end
$var wire 1 O" \convert_binary|int_data_2\ [24] $end
$var wire 1 P" \convert_binary|int_data_2\ [23] $end
$var wire 1 Q" \convert_binary|int_data_2\ [22] $end
$var wire 1 R" \convert_binary|int_data_2\ [21] $end
$var wire 1 S" \convert_binary|int_data_2\ [20] $end
$var wire 1 T" \convert_binary|int_data_2\ [19] $end
$var wire 1 U" \convert_binary|int_data_2\ [18] $end
$var wire 1 V" \convert_binary|int_data_2\ [17] $end
$var wire 1 W" \convert_binary|int_data_2\ [16] $end
$var wire 1 X" \convert_binary|int_data_2\ [15] $end
$var wire 1 Y" \convert_binary|int_data_2\ [14] $end
$var wire 1 Z" \convert_binary|int_data_2\ [13] $end
$var wire 1 [" \convert_binary|int_data_2\ [12] $end
$var wire 1 \" \convert_binary|int_data_2\ [11] $end
$var wire 1 ]" \convert_binary|int_data_2\ [10] $end
$var wire 1 ^" \convert_binary|int_data_2\ [9] $end
$var wire 1 _" \convert_binary|int_data_2\ [8] $end
$var wire 1 `" \convert_binary|int_data_2\ [7] $end
$var wire 1 a" \convert_binary|int_data_2\ [6] $end
$var wire 1 b" \convert_binary|int_data_2\ [5] $end
$var wire 1 c" \convert_binary|int_data_2\ [4] $end
$var wire 1 d" \convert_binary|int_data_2\ [3] $end
$var wire 1 e" \convert_binary|int_data_2\ [2] $end
$var wire 1 f" \convert_binary|int_data_2\ [1] $end
$var wire 1 g" \convert_binary|int_data_2\ [0] $end
$var wire 1 h" \seven_seg_display_1|seven_seg\ [6] $end
$var wire 1 i" \seven_seg_display_1|seven_seg\ [5] $end
$var wire 1 j" \seven_seg_display_1|seven_seg\ [4] $end
$var wire 1 k" \seven_seg_display_1|seven_seg\ [3] $end
$var wire 1 l" \seven_seg_display_1|seven_seg\ [2] $end
$var wire 1 m" \seven_seg_display_1|seven_seg\ [1] $end
$var wire 1 n" \seven_seg_display_1|seven_seg\ [0] $end
$var wire 1 o" \seven_seg_display_2|seven_seg\ [6] $end
$var wire 1 p" \seven_seg_display_2|seven_seg\ [5] $end
$var wire 1 q" \seven_seg_display_2|seven_seg\ [4] $end
$var wire 1 r" \seven_seg_display_2|seven_seg\ [3] $end
$var wire 1 s" \seven_seg_display_2|seven_seg\ [2] $end
$var wire 1 t" \seven_seg_display_2|seven_seg\ [1] $end
$var wire 1 u" \seven_seg_display_2|seven_seg\ [0] $end
$var wire 1 v" \convert_binary|int_data_1\ [31] $end
$var wire 1 w" \convert_binary|int_data_1\ [30] $end
$var wire 1 x" \convert_binary|int_data_1\ [29] $end
$var wire 1 y" \convert_binary|int_data_1\ [28] $end
$var wire 1 z" \convert_binary|int_data_1\ [27] $end
$var wire 1 {" \convert_binary|int_data_1\ [26] $end
$var wire 1 |" \convert_binary|int_data_1\ [25] $end
$var wire 1 }" \convert_binary|int_data_1\ [24] $end
$var wire 1 ~" \convert_binary|int_data_1\ [23] $end
$var wire 1 !# \convert_binary|int_data_1\ [22] $end
$var wire 1 "# \convert_binary|int_data_1\ [21] $end
$var wire 1 ## \convert_binary|int_data_1\ [20] $end
$var wire 1 $# \convert_binary|int_data_1\ [19] $end
$var wire 1 %# \convert_binary|int_data_1\ [18] $end
$var wire 1 &# \convert_binary|int_data_1\ [17] $end
$var wire 1 '# \convert_binary|int_data_1\ [16] $end
$var wire 1 (# \convert_binary|int_data_1\ [15] $end
$var wire 1 )# \convert_binary|int_data_1\ [14] $end
$var wire 1 *# \convert_binary|int_data_1\ [13] $end
$var wire 1 +# \convert_binary|int_data_1\ [12] $end
$var wire 1 ,# \convert_binary|int_data_1\ [11] $end
$var wire 1 -# \convert_binary|int_data_1\ [10] $end
$var wire 1 .# \convert_binary|int_data_1\ [9] $end
$var wire 1 /# \convert_binary|int_data_1\ [8] $end
$var wire 1 0# \convert_binary|int_data_1\ [7] $end
$var wire 1 1# \convert_binary|int_data_1\ [6] $end
$var wire 1 2# \convert_binary|int_data_1\ [5] $end
$var wire 1 3# \convert_binary|int_data_1\ [4] $end
$var wire 1 4# \convert_binary|int_data_1\ [3] $end
$var wire 1 5# \convert_binary|int_data_1\ [2] $end
$var wire 1 6# \convert_binary|int_data_1\ [1] $end
$var wire 1 7# \convert_binary|int_data_1\ [0] $end
$var wire 1 8# \seven_seg_display_3|seven_seg\ [6] $end
$var wire 1 9# \seven_seg_display_3|seven_seg\ [5] $end
$var wire 1 :# \seven_seg_display_3|seven_seg\ [4] $end
$var wire 1 ;# \seven_seg_display_3|seven_seg\ [3] $end
$var wire 1 <# \seven_seg_display_3|seven_seg\ [2] $end
$var wire 1 =# \seven_seg_display_3|seven_seg\ [1] $end
$var wire 1 ># \seven_seg_display_3|seven_seg\ [0] $end
$var wire 1 ?# \convert_binary|int_data_3\ [31] $end
$var wire 1 @# \convert_binary|int_data_3\ [30] $end
$var wire 1 A# \convert_binary|int_data_3\ [29] $end
$var wire 1 B# \convert_binary|int_data_3\ [28] $end
$var wire 1 C# \convert_binary|int_data_3\ [27] $end
$var wire 1 D# \convert_binary|int_data_3\ [26] $end
$var wire 1 E# \convert_binary|int_data_3\ [25] $end
$var wire 1 F# \convert_binary|int_data_3\ [24] $end
$var wire 1 G# \convert_binary|int_data_3\ [23] $end
$var wire 1 H# \convert_binary|int_data_3\ [22] $end
$var wire 1 I# \convert_binary|int_data_3\ [21] $end
$var wire 1 J# \convert_binary|int_data_3\ [20] $end
$var wire 1 K# \convert_binary|int_data_3\ [19] $end
$var wire 1 L# \convert_binary|int_data_3\ [18] $end
$var wire 1 M# \convert_binary|int_data_3\ [17] $end
$var wire 1 N# \convert_binary|int_data_3\ [16] $end
$var wire 1 O# \convert_binary|int_data_3\ [15] $end
$var wire 1 P# \convert_binary|int_data_3\ [14] $end
$var wire 1 Q# \convert_binary|int_data_3\ [13] $end
$var wire 1 R# \convert_binary|int_data_3\ [12] $end
$var wire 1 S# \convert_binary|int_data_3\ [11] $end
$var wire 1 T# \convert_binary|int_data_3\ [10] $end
$var wire 1 U# \convert_binary|int_data_3\ [9] $end
$var wire 1 V# \convert_binary|int_data_3\ [8] $end
$var wire 1 W# \convert_binary|int_data_3\ [7] $end
$var wire 1 X# \convert_binary|int_data_3\ [6] $end
$var wire 1 Y# \convert_binary|int_data_3\ [5] $end
$var wire 1 Z# \convert_binary|int_data_3\ [4] $end
$var wire 1 [# \convert_binary|int_data_3\ [3] $end
$var wire 1 \# \convert_binary|int_data_3\ [2] $end
$var wire 1 ]# \convert_binary|int_data_3\ [1] $end
$var wire 1 ^# \convert_binary|int_data_3\ [0] $end
$var wire 1 _# \addsub|ALT_INV_V~combout\ $end
$var wire 1 `# \addsub|sum4|ALT_INV_C_out~combout\ $end
$var wire 1 a# \addsub|sum5|ALT_INV_sum~0_combout\ $end
$var wire 1 b# \addsub|ALT_INV_comb~1_combout\ $end
$var wire 1 c# \addsub|sum4|ALT_INV_sum~combout\ $end
$var wire 1 d# \addsub|sum4|ALT_INV_sum~0_combout\ $end
$var wire 1 e# \addsub|ALT_INV_comb~0_combout\ $end
$var wire 1 f# \addsub|sum3|ALT_INV_sum~combout\ $end
$var wire 1 g# \addsub|sum3|ALT_INV_sum~0_combout\ $end
$var wire 1 h# \addsub|sum2|ALT_INV_C_out~combout\ $end
$var wire 1 i# \addsub|sum2|ALT_INV_sum~combout\ $end
$var wire 1 j# \addsub|sum1|ALT_INV_sum~0_combout\ $end
$var wire 1 k# \convert_binary|Div0|auto_generated|divider|divider|ALT_INV_op_4~17_sumout\ $end
$var wire 1 l# \convert_binary|Div0|auto_generated|divider|divider|ALT_INV_op_4~13_sumout\ $end
$var wire 1 m# \convert_binary|Div0|auto_generated|divider|divider|ALT_INV_op_4~9_sumout\ $end
$var wire 1 n# \convert_binary|Div0|auto_generated|divider|divider|ALT_INV_op_4~5_sumout\ $end
$var wire 1 o# \convert_binary|Mod0|auto_generated|divider|divider|ALT_INV_op_4~17_sumout\ $end
$var wire 1 p# \convert_binary|Mod1|auto_generated|divider|divider|ALT_INV_op_5~17_sumout\ $end
$var wire 1 q# \convert_binary|Mod1|auto_generated|divider|divider|ALT_INV_op_5~13_sumout\ $end
$var wire 1 r# \convert_binary|Mod1|auto_generated|divider|divider|ALT_INV_op_5~9_sumout\ $end
$var wire 1 s# \convert_binary|Div0|auto_generated|divider|divider|ALT_INV_op_4~1_sumout\ $end
$var wire 1 t# \convert_binary|Mod1|auto_generated|divider|divider|ALT_INV_op_5~5_sumout\ $end
$var wire 1 u# \convert_binary|Mod1|auto_generated|divider|divider|ALT_INV_op_5~1_sumout\ $end
$var wire 1 v# \convert_binary|Div0|auto_generated|divider|divider|ALT_INV_op_5~1_sumout\ $end
$var wire 1 w# \convert_binary|Mod0|auto_generated|divider|divider|ALT_INV_op_5~17_sumout\ $end
$var wire 1 x# \convert_binary|Mod0|auto_generated|divider|divider|ALT_INV_op_4~13_sumout\ $end
$var wire 1 y# \convert_binary|Mod0|auto_generated|divider|divider|ALT_INV_op_5~13_sumout\ $end
$var wire 1 z# \convert_binary|Mod0|auto_generated|divider|divider|ALT_INV_op_4~9_sumout\ $end
$var wire 1 {# \convert_binary|Mod0|auto_generated|divider|divider|ALT_INV_op_5~9_sumout\ $end
$var wire 1 |# \convert_binary|Mod0|auto_generated|divider|divider|ALT_INV_op_4~5_sumout\ $end
$var wire 1 }# \convert_binary|Mod0|auto_generated|divider|divider|ALT_INV_op_4~1_sumout\ $end
$var wire 1 ~# \convert_binary|Mod0|auto_generated|divider|divider|ALT_INV_op_5~5_sumout\ $end
$var wire 1 !$ \convert_binary|Mod0|auto_generated|divider|divider|ALT_INV_op_5~1_sumout\ $end
$var wire 1 "$ \ALT_INV_B[4]~input_o\ $end
$var wire 1 #$ \ALT_INV_A[4]~input_o\ $end
$var wire 1 $$ \ALT_INV_B[3]~input_o\ $end
$var wire 1 %$ \ALT_INV_A[3]~input_o\ $end
$var wire 1 &$ \ALT_INV_B[2]~input_o\ $end
$var wire 1 '$ \ALT_INV_A[2]~input_o\ $end
$var wire 1 ($ \ALT_INV_ctrl_M~input_o\ $end
$var wire 1 )$ \ALT_INV_B[1]~input_o\ $end
$var wire 1 *$ \ALT_INV_A[1]~input_o\ $end
$var wire 1 +$ \ALT_INV_B[0]~input_o\ $end
$var wire 1 ,$ \ALT_INV_A[0]~input_o\ $end
$var wire 1 -$ \convert_binary|Div0|auto_generated|divider|divider|ALT_INV_StageOut[15]~1_combout\ $end
$var wire 1 .$ \addsub|sum2|ALT_INV_C_out~1_combout\ $end
$var wire 1 /$ \addsub|sum2|ALT_INV_C_out~0_combout\ $end
$var wire 1 0$ \convert_binary|Div0|auto_generated|divider|divider|ALT_INV_StageOut[17]~0_combout\ $end
$var wire 1 1$ \addsub|sum3|ALT_INV_C_out~combout\ $end
$var wire 1 2$ \addsub|sum1|ALT_INV_C_out~0_combout\ $end
$var wire 1 3$ \convert_binary|Mod0|auto_generated|divider|divider|ALT_INV_StageOut[17]~1_combout\ $end
$var wire 1 4$ \convert_binary|Mod0|auto_generated|divider|divider|ALT_INV_StageOut[15]~0_combout\ $end
$var wire 1 5$ \convert_binary|ALT_INV_int_data_3\ [1] $end
$var wire 1 6$ \convert_binary|ALT_INV_int_data_2\ [3] $end
$var wire 1 7$ \convert_binary|ALT_INV_int_data_2\ [2] $end
$var wire 1 8$ \convert_binary|ALT_INV_int_data_2\ [1] $end
$var wire 1 9$ \convert_binary|ALT_INV_int_data_2\ [0] $end
$var wire 1 :$ \convert_binary|ALT_INV_int_data_1\ [3] $end
$var wire 1 ;$ \convert_binary|ALT_INV_int_data_1\ [2] $end
$var wire 1 <$ \convert_binary|ALT_INV_int_data_1\ [1] $end
$var wire 1 =$ \convert_binary|ALT_INV_int_data_1\ [0] $end
$upscope $end
$upscope $end
$enddefinitions $end
#0
$dumpvars
0+
0,
1-
1.
0I
0J
1K
xL
1M
1N
1O
1P
1Q
1R
0S
1T
1_
0e
0f
1|
1}
1~
1!!
1"!
0#!
0$!
0%!
0&!
0'!
0(!
0)!
0*!
0+!
0,!
0-!
0.!
0/!
00!
01!
02!
03!
04!
05!
06!
07!
08!
09!
0:!
1;!
1<!
1=!
1>!
1?!
1@!
0A!
0B!
0C!
1D!
1E!
1F!
0G!
0H!
1I!
1J!
1K!
0L!
0M!
1N!
1O!
0P!
0Q!
0R!
0S!
0T!
1U!
1V!
1W!
1X!
1Y!
0Z!
0[!
1\!
1]!
0^!
1_!
1`!
1a!
1b!
1c!
1d!
1e!
1f!
0g!
1h!
1i!
1j!
0k!
0l!
0m!
0n!
0o!
0p!
0q!
0r!
0s!
0t!
0u!
0v!
1w!
0x!
0y!
1z!
1{!
1|!
1}!
1~!
0!"
0""
1#"
1$"
0%"
1&"
1'"
1("
1)"
1*"
1+"
1,"
1-"
0."
0/"
10"
11"
02"
13"
04"
05"
06"
17"
18"
19"
0:"
1;"
0<"
0="
1>"
0?"
0@"
0A"
0B"
0C"
0D"
0E"
1F"
1G"
1_#
1`#
0a#
0b#
0c#
0d#
0e#
0f#
0g#
1h#
0i#
0j#
0k#
1l#
0m#
1n#
1o#
0p#
1q#
1r#
1s#
0t#
0u#
1v#
1w#
0x#
1y#
1z#
1{#
0|#
1}#
0~#
1!$
1"$
1#$
1$$
1%$
1&$
1'$
0($
0)$
0*$
0+$
1,$
0-$
1.$
1/$
00$
11$
12$
03$
04$
0!
0"
0#
1$
0%
0&
0'
0(
1)
1*
1/
10
11
12
13
04
05
06
07
08
09
0:
0;
0<
0=
0>
0?
0@
0A
0B
0C
0D
0E
0F
0G
0H
0U
0V
0W
1X
0Y
0Z
0[
0\
1]
1^
1`
1a
1b
1c
1d
0g
0h
0i
0j
0k
0l
0m
0n
0o
0p
0q
0r
0s
0t
0u
0v
0w
0x
0y
0z
0{
xH"
xI"
xJ"
xK"
xL"
xM"
xN"
xO"
xP"
xQ"
xR"
xS"
xT"
xU"
xV"
xW"
xX"
xY"
xZ"
x["
x\"
x]"
x^"
x_"
x`"
xa"
xb"
xc"
0d"
0e"
0f"
0g"
0h"
0i"
0j"
0k"
0l"
0m"
0n"
0o"
0p"
0q"
0r"
0s"
0t"
0u"
xv"
xw"
xx"
xy"
xz"
x{"
x|"
x}"
x~"
x!#
x"#
x##
x$#
x%#
x&#
x'#
x(#
x)#
x*#
x+#
x,#
x-#
x.#
x/#
x0#
x1#
x2#
x3#
04#
05#
06#
07#
08#
x9#
x:#
x;#
0<#
0=#
x>#
x?#
x@#
xA#
xB#
xC#
xD#
xE#
xF#
xG#
xH#
xI#
xJ#
xK#
xL#
xM#
xN#
xO#
xP#
xQ#
xR#
xS#
xT#
xU#
xV#
xW#
xX#
xY#
xZ#
x[#
x\#
0]#
x^#
15$
16$
17$
18$
19$
1:$
1;$
1<$
1=$
$end
#5000
1,
1S
1R!
17#
1h"
1g"
1f"
1o"
18#
08$
09$
0=$
1q!
1t!
1u!
1v!
1D"
1E"
0F"
19!
12!
1+!
1u
1n
1g
1B
1;
14
#10000
0,
0S
0R!
#15000
1,
1S
1R!
1n"
1k"
1j"
1i"
1q"
1p"
0o"
02!
11!
10!
1*!
1)!
1(!
1%!
0n
1o
1p
1h
1i
1j
1m
1=
1<
0;
1:
17
16
15
#20000
0,
0S
0R!
#25000
1,
1S
1R!
#30000
0,
0S
0R!
#35000
1,
1S
1R!
#40000
0,
0S
0R!
#45000
1,
1S
1R!
#50000
0,
0S
0R!
#55000
1,
1S
1R!
#60000
0,
0S
0R!
#65000
1,
1S
1R!
